{
  "$schema": "https://ide.bitauth.com/authentication-template-v0.schema.json",
  "description": "",
  "name": "AuthChain Guard v1.0.1",
  "entities": {
    "owner": {
      "description": "The individual who can spend from this wallet.",
      "name": "Owner",
      "variables": {
        "owner_key": {
          "description": "",
          "name": "owner_key",
          "privateDerivationPath": "m/0/0",
          "type": "HdKey"
        },
        "new_owner_key": {
          "description": "",
          "name": "new_owner_key",
          "type": "AddressData"
        }
      }
    }
  },
  "scenarios": {
    "set_key": {
      "data": {
        "hdKeys": {
          "hdPrivateKeys": {

          }
        }
      },
      "description": "Set the xPriv key here.",
      "name": "set_key"
    },
    "genesis_tx": {
      "description": "Create a genesis TX with authchain_guard output.",
      "extends": "set_key",
      "name": "genesis",
      "transaction": {
        "inputs": [
          {
            "outpointTransactionHash": "0000000000000000000000000000000000000000000000000000000000000001",
            "outpointIndex": 0,
            "unlockingBytecode": [
              "slot"
            ]
          }
        ],
        "outputs": [
          {
            "valueSatoshis": 0,
            "lockingBytecode": {
              "script": "authchain_guard"
            }
          },
          {
            "valueSatoshis": 0,
            "lockingBytecode": {
              "script": "output_bcmr_opreturn"
            }
          },
          {
            "valueSatoshis": 0,
            "lockingBytecode": {
              "script": "owner_p2pkh"
            }
          }
        ]
      },
      "sourceOutputs": [
        {
          "valueSatoshis": 0,
          "lockingBytecode": [
            "slot"
          ]
        }
      ]
    },
    "authchain_inputs": {
      "description": "Set source input(s) & their UTXO data here.",
      "extends": "set_key",
      "name": "authchain_inputs",
      "transaction": {
        "inputs": [
          {
            "outpointTransactionHash": "0000000000000000000000000000000000000000000000000000000000000001",
            "outpointIndex": 0,
            "unlockingBytecode": [
              "slot"
            ]
          }
        ]
      },
      "sourceOutputs": [
        {
          "valueSatoshis": 0,
          "lockingBytecode": [
            "slot"
          ]
        }
      ]
    },
    "authchain_publish_tx": {
      "description": "Only change output values here, to balance the TX. Edit the output_bcmr_opreturn using IDE GUI.",
      "extends": "authchain_inputs",
      "name": "publish",
      "transaction": {
        "outputs": [
          {
            "valueSatoshis": 0,
            "lockingBytecode": {
              "script": "authchain_guard"
            }
          },
          {
            "valueSatoshis": 0,
            "lockingBytecode": {
              "script": "output_bcmr_opreturn"
            }
          }
        ]
      }
    },
    "authchain_transfer_tx": {
      "data": {
        "bytecode": {
          "new_owner_key": "0x03aef58dbd3aad85e19f7ff6253a649538f086ac17165bf59262365b3a56208dd9"
        }
      },
      "description": "Set new_owner_key above, and set output value here to balance the TX.",
      "extends": "authchain_inputs",
      "name": "transfer",
      "transaction": {
        "outputs": [
          {
            "valueSatoshis": 0,
            "lockingBytecode": {
              "script": "output_authchain_guard_new_owner"
            }
          }
        ]
      }
    },
    "authchain_release_tx": {
      "description": "Directly set output's lockingBytecode here, and set output value here to balance the TX.",
      "extends": "authchain_inputs",
      "name": "release",
      "transaction": {
        "outputs": [
          {
            "valueSatoshis": 0,
            "lockingBytecode": "76a914c525d7e7d1691122eb8810c108aee627a3e25b5388ac"
          }
        ]
      }
    },
    "authchain_burn_tx": {
      "description": "Directly set output's lockingBytecode here, and set output value here to balance the TX.\nAdd achange output if needed.",
      "extends": "authchain_inputs",
      "name": "burn",
      "transaction": {
        "outputs": [
          {
            "valueSatoshis": 0,
            "lockingBytecode": "6a044255524e200100000000000000000000000000000000000000000000000000000000000000"
          },
          {
            "valueSatoshis": 0,
            "lockingBytecode": {
              "script": "owner_p2pkh"
            }
          }
        ]
      }
    }
  },
  "scripts": {
    "authchain_guard_release": {
      "passes": [
        "authchain_release_tx"
      ],
      "name": "authchain_guard_release",
      "script": "// sig ownerSignature\n<owner_key.schnorr_signature.all_outputs>\n\n// pubkey newOwnerPubKey\n<1>\n",
      "unlocks": "authchain_guard"
    },
    "authchain_guard_publish": {
      "passes": [
        "authchain_publish_tx"
      ],
      "name": "authchain_guard_publish",
      "script": "// sig ownerSignature\n<owner_key.schnorr_signature.all_outputs>\n\n// pubkey newOwnerPubKey\n<0>\n",
      "unlocks": "authchain_guard"
    },
    "authchain_guard_transfer": {
      "passes": [
        "authchain_transfer_tx"
      ],
      "name": "authchain_guard_transfer",
      "script": "// sig ownerSignature\n<owner_key.schnorr_signature.all_outputs>\n\n// pubkey newOwnerPubKey\n<new_owner_key>\n",
      "unlocks": "authchain_guard"
    },
    "authchain_guard_burn": {
      "passes": [
        "authchain_burn_tx"
      ],
      "name": "authchain_guard_burn",
      "script": "// sig ownerSignature\n<owner_key.schnorr_signature.all_outputs>\n\n// pubkey newOwnerPubKey\n<0>\n",
      "unlocks": "authchain_guard"
    },
    "autchchain_genesis": {
      "passes": [
        "genesis_tx"
      ],
      "name": "autchchain_genesis",
      "script": "<owner_key.schnorr_signature.all_outputs>\n<owner_key.public_key>",
      "unlocks": "owner_p2pkh"
    },
    "authchain_guard": {
      "lockingType": "p2sh20",
      "name": "authchain_guard",
      "script": "// AuthchainGuard v1.0.1\n\n// The contract ensures that, when publishing a BCMR, the authchain is\n// correctly passed on to the next index-0 output.\n\n// Methods:\n// - Publish (0, ownerSignature): publishes a BCMR and passes the\n// covenant on to a new index 0 output with the same key.\n// - Burn (0, ownerSignature): burns the authchain.\n// Requires specific form of burn output to avoid accidental burn.\n// - Release (1, ownerSignature): Frees the authchain from the covenant.\n// - Transfer (newOwnerPubKey, ownerSignature): Changes the owning key\n// of the covenant by mutating the covenant locking bytecode.\n\n// pubkey ownerPubKey\n<owner_key.public_key>\n\n// Compiled with:\n// pragma cashscript ^0.8.0;\n\n// Schnorr sig only\nOP_2 OP_PICK OP_DUP OP_SIZE OP_NIP\n<0x41> OP_NUMEQUALVERIFY\n\n// Require owner's signature for all operations\nOP_3 OP_ROLL OP_ROT\nOP_CHECKSIGVERIFY\n\n// No funny business, require it to be of SIGHASH_ALL type\n<0x40> OP_SPLIT OP_NIP\n<0x41> OP_EQUALVERIFY\n\n// If locking bytecode is not being changed then this is an update.\nOP_0 OP_OUTPUTBYTECODE\nOP_INPUTINDEX OP_UTXOBYTECODE\nOP_EQUAL\nOP_IF\n    // Publish\n\n    // Not used, require 0.\n    OP_DUP\n    OP_0 OP_EQUALVERIFY\n    \n    // Require input index 0 so multiple autchains with this contract\n    // can't be accidentially and irreversibly merged.\n    OP_INPUTINDEX\n    OP_0 OP_NUMEQUALVERIFY\nOP_ELSE\n    // Allow only clearly intentional burn form:\n    // OP_RETURN <'BURN'> <this_inputs_outpoint_hash>\n    OP_0 OP_OUTPUTBYTECODE\n    <0x6a> OP_4 OP_CAT <0x4255524e> OP_CAT <0x20> OP_CAT\n        OP_INPUTINDEX OP_OUTPOINTTXHASH OP_CAT\n    OP_EQUAL\n    OP_IF\n        // Burn\n\n        // Not used, require 0.\n        OP_DUP\n        OP_0 OP_EQUALVERIFY\n    OP_ELSE\n        OP_DUP OP_1\n        OP_EQUAL\n        OP_IF\n            // Release\n\n            // Free the authchain from covenant (to allow later transition to\n            // some other scheme)\n            // Note: this makes the TX 3rd party malleable, but 3rd parties\n            // can't produce a valid signature for the outputs, so it's only\n            // relevant if owner flips this switch - it disables all safety\n            // checks and lets him do whatever by signing the outputs.\n        OP_ELSE\n            // Transfer\n\n            // Require input index 0 so multiple autchains with this contract\n            // can't be accidentially and irreversibly merged.\n            OP_INPUTINDEX\n            OP_0 OP_NUMEQUALVERIFY\n\n            // Self-mutate the covenant to be owned by newOwnerPubKey\n            OP_DUP OP_SIZE OP_NIP\n            <0x21> OP_NUMEQUALVERIFY\n            OP_ACTIVEBYTECODE\n                <0x22> OP_SPLIT OP_NIP\n                <0x21> OP_2 OP_PICK OP_CAT\n                OP_OVER OP_CAT\n            OP_0 OP_OUTPUTBYTECODE\n            <0xa914> OP_2 OP_PICK\n            OP_HASH160 OP_CAT <0x87> OP_CAT\n            OP_EQUALVERIFY\n            \n            OP_2DROP\n        OP_ENDIF\n    OP_ENDIF\nOP_ENDIF\nOP_DROP OP_1\n"
    },
    "owner_p2pkh": {
      "lockingType": "standard",
      "name": "owner_p2pkh",
      "script": "OP_DUP OP_HASH160\n<$(<owner_key.public_key> OP_HASH160)>\nOP_EQUALVERIFY OP_CHECKSIG\n"
    },
    "output_authchain_guard_new_owner": {
      "name": "output_authchain_guard_new_owner",
      "script": "OP_HASH160 0x14\n$(\n    <\n        <new_owner_key>\n        0x527976827701419d537a7bad01407f7701418800cdc0c78763760088c0009d6700cd016a547e044255524e7e01207ec0c87e8763760088677651876367c0009d76827701219dc101227f77012152797e787e00cd02a9145279a97e01877e886d6868687551\n    >\n    OP_HASH160\n)\nOP_EQUAL"
    },
    "output_bcmr_opreturn": {
      "name": "output_bcmr_opreturn",
      "script": "OP_RETURN <'BCMR'>\n<0x9af7e370e55d0ff5581412669d0ebc365a3ec062d95d8d3f0aed4fe3c262bfcd>\n<'https://raw.githubusercontent.com/OpenTokenRegistry/otr.cash/master/static/.well-known/bitcoin-cash-metadata-registry.json'>"
    }
  },
  "supported": [
    "BCH_SPEC"
  ],
  "version": 0
}
